{
  "resources": [
    "/Virtuoso/virtuoso/audio5.wav"
  ],
  "spritemap": {
    "0": {
      "start": 0.0,
      "end": 2.922,
      "loop": false
    },
    "1": {
      "start": 3.794,
      "end": 6.304,
      "loop": false
    },
    "2": {
      "start": 6.809,
      "end": 9.496,
      "loop": false
    },
    "3": {
      "start": 10.295,
      "end": 13.221,
      "loop": false
    },
    "4": {
      "start": 14.064,
      "end": 16.668,
      "loop": false
    },
    "5": {
      "start": 17.213,
      "end": 20.038,
      "loop": false
    },
    "6": {
      "start": 21.234,
      "end": 23.05,
      "loop": false
    },
    "7": {
      "start": 23.188,
      "end": 25.078,
      "loop": false
    },
    "8": {
      "start": 25.227,
      "end": 27.397,
      "loop": false
    },
    "9": {
      "start": 27.543,
      "end": 29.137,
      "loop": false
    },
    "10": {
      "start": 29.28,
      "end": 31.681,
      "loop": false
    },
    "11": {
      "start": 31.9,
      "end": 33.743,
      "loop": false
    },
    "12": {
      "start": 33.885,
      "end": 35.984,
      "loop": false
    },
    "13": {
      "start": 36.125,
      "end": 38.029,
      "loop": false
    },
    "14": {
      "start": 38.167,
      "end": 40.29,
      "loop": false
    },
    "15": {
      "start": 40.435,
      "end": 42.633,
      "loop": false
    },
    "16": {
      "start": 42.782,
      "end": 44.424,
      "loop": false
    },
    "17": {
      "start": 44.564,
      "end": 46.132,
      "loop": false
    },
    "18": {
      "start": 46.267,
      "end": 48.124,
      "loop": false
    },
    "19": {
      "start": 48.263,
      "end": 49.799,
      "loop": false
    },
    "20": {
      "start": 49.935,
      "end": 51.585,
      "loop": false
    },
    "21": {
      "start": 51.719,
      "end": 53.504,
      "loop": false
    },
    "22": {
      "start": 53.647,
      "end": 54.0,
      "loop": false
    }
  }
}