{
  "resources": [
    "./audio/HEAVY/STRINGS/3/3.wav"
  ],
  "spritemap": {
    "0": {
      "start": 0.0,
      "end": 4.666,
      "loop": false
    },
    "1": {
      "start": 5.008,
      "end": 9.666,
      "loop": false
    },
    "2": {
      "start": 10.007,
      "end": 14.647,
      "loop": false
    },
    "3": {
      "start": 15.003,
      "end": 19.618,
      "loop": false
    },
    "4": {
      "start": 20.008,
      "end": 24.536,
      "loop": false
    },
    "5": {
      "start": 25.002,
      "end": 29.539,
      "loop": false
    },
    "6": {
      "start": 30.006,
      "end": 34.606,
      "loop": false
    },
    "7": {
      "start": 35.012,
      "end": 39.637,
      "loop": false
    },
    "8": {
      "start": 40.003,
      "end": 44.659,
      "loop": false
    },
    "9": {
      "start": 45.001,
      "end": 49.693,
      "loop": false
    },
    "10": {
      "start": 50.006,
      "end": 54.645,
      "loop": false
    },
    "11": {
      "start": 55.001,
      "end": 59.572,
      "loop": false
    },
    "12": {
      "start": 60.003,
      "end": 64.618,
      "loop": false
    },
    "13": {
      "start": 65.002,
      "end": 69.577,
      "loop": false
    },
    "14": {
      "start": 70.005,
      "end": 74.487,
      "loop": false
    },
    "15": {
      "start": 75.001,
      "end": 79.589,
      "loop": false
    },
    "16": {
      "start": 80.001,
      "end": 84.524,
      "loop": false
    },
    "17": {
      "start": 85.002,
      "end": 89.512,
      "loop": false
    },
    "18": {
      "start": 90.001,
      "end": 94.299,
      "loop": false
    },
    "19": {
      "start": 95.0,
      "end": 98.952,
      "loop": false
    },
    "20": {
      "start": 100.003,
      "end": 104.161,
      "loop": false
    },
    "21": {
      "start": 105.001,
      "end": 108.576,
      "loop": false
    },
    "22": {
      "start": 110.003,
      "end": 113.283,
      "loop": false
    }
  }
}